('/home/ismetsezer/Desktop/webapps/scripts/ftp-client/build/client/client',
 True,
 False,
 True,
 None,
 None,
 False,
 False,
 None,
 True,
 'client.pkg',
 [('out00-PYZ.pyz',
   '/home/ismetsezer/Desktop/webapps/scripts/ftp-client/build/client/out00-PYZ.pyz',
   'PYZ'),
  ('struct', '/usr/lib/python2.7/struct.pyc', 'PYMODULE'),
  ('pyimod01_os_path',
   '/usr/local/lib/python2.7/dist-packages/PyInstaller/loader/pyimod01_os_path.pyc',
   'PYMODULE'),
  ('pyimod02_archive',
   '/usr/local/lib/python2.7/dist-packages/PyInstaller/loader/pyimod02_archive.pyc',
   'PYMODULE'),
  ('pyimod03_importers',
   '/usr/local/lib/python2.7/dist-packages/PyInstaller/loader/pyimod03_importers.pyc',
   'PYMODULE'),
  ('pyiboot01_bootstrap',
   '/usr/local/lib/python2.7/dist-packages/PyInstaller/loader/pyiboot01_bootstrap.py',
   'PYSOURCE'),
  ('client',
   '/home/ismetsezer/Desktop/webapps/scripts/ftp-client/client.py',
   'PYSOURCE')],
 [],
 False,
 False,
 1528454896,
 [('run',
   '/usr/local/lib/python2.7/dist-packages/PyInstaller/bootloader/Linux-64bit/run',
   'EXECUTABLE')])
